{
  "name": "DTDSingleHttpRequestConfig",
  "description": "This is RPA Dell TechDirect process developed for Entercoms.",
  "main": "Main.xaml",
  "dependencies": {
    "Microsoft.Activities.Extensions": "[2.0.6.9]",
    "UiPath.Database.Activities": "[1.3.7369.25200]",
    "UiPath.Excel.Activities": "[2.9.0-preview]",
    "UiPath.Mail.Activities": "[1.9.0-preview]",
    "UiPath.System.Activities": "[20.6.1-preview]",
    "UiPath.UIAutomation.Activities": "[20.6.0-preview]",
    "UiPath.WebAPI.Activities": "[1.4.5]"
  },
  "webServices": [],
  "entitiesStores": [],
  "schemaVersion": "4.0",
  "studioVersion": "20.6.0.0",
  "projectVersion": "1.0.8",
  "runtimeOptions": {
    "autoDispose": false,
    "isPausable": true,
    "requiresUserInteraction": true,
    "supportsPersistence": false,
    "excludedLoggedData": [
      "Private:*",
      "*password*"
    ],
    "executionType": "Workflow",
    "readyForPiP": false,
    "startsInPiP": false
  },
  "designOptions": {
    "projectProfile": "Developement",
    "outputType": "Process",
    "libraryOptions": {
      "includeOriginalXaml": false,
      "privateWorkflows": []
    },
    "processOptions": {
      "ignoredFiles": []
    },
    "fileInfoCollection": [],
    "modernBehavior": false
  },
  "arguments": {
    "input": [],
    "output": []
  },
  "expressionLanguage": "VisualBasic",
  "isTemplate": false
}